{
  "status": "success",
  "message": "Posts retrieved successfully",
  "data": [
    {
      "id": 1,
      "title": "Revolutionary AI Breakthrough Changes Everything",
      "content": "<p>Scientists have developed a new artificial intelligence system that can process natural language with unprecedented accuracy. This breakthrough promises to revolutionize how we interact with technology.</p><p>The system uses advanced neural networks and machine learning algorithms to understand context and nuance in human communication.</p>",
      "author": {
        "id": 101,
        "name": "Dr. Sarah Johnson",
        "email": "sarah.johnson@example.com"
      },
      "created_at": "2024-01-15T14:30:00+00:00",
      "updated_at": "2024-01-15T16:45:00+00:00",
      "category": {
        "id": 1,
        "name": "Technology",
        "slug": "technology"
      },
      "tags": [
        {
          "id": 1,
          "name": "Artificial Intelligence",
          "slug": "artificial-intelligence"
        },
        {
          "id": 2,
          "name": "Machine Learning",
          "slug": "machine-learning"
        },
        {
          "id": 3,
          "name": "Innovation",
          "slug": "innovation"
        }
      ],
      "featured_image": {
        "id": 201,
        "url": "https://api.example.com/images/ai-breakthrough.jpg",
        "alt": "AI Breakthrough Image",
        "width": 1200,
        "height": 800
      },
      "audio_file": {
        "id": 301,
        "url": "https://api.example.com/audio/ai-breakthrough-podcast.mp3",
        "duration": 1800,
        "size": 25600000
      }
    },
    {
      "id": 2,
      "title": "Climate Change Summit Reaches Historic Agreement",
      "content": "<p>World leaders have reached a groundbreaking agreement on climate change mitigation strategies. The new accord includes ambitious targets for carbon reduction and renewable energy adoption.</p><p>This historic agreement represents a turning point in global environmental policy and sets the stage for significant changes in how nations approach sustainability.</p>",
      "author": {
        "id": 102,
        "name": "Michael Chen",
        "email": "michael.chen@example.com"
      },
      "created_at": "2024-01-14T09:15:00+00:00",
      "updated_at": "2024-01-14T11:30:00+00:00",
      "category": {
        "id": 2,
        "name": "Environment",
        "slug": "environment"
      },
      "tags": [
        {
          "id": 4,
          "name": "Climate Change",
          "slug": "climate-change"
        },
        {
          "id": 5,
          "name": "Sustainability",
          "slug": "sustainability"
        },
        {
          "id": 6,
          "name": "Policy",
          "slug": "policy"
        }
      ],
      "featured_image": {
        "id": 202,
        "url": "https://api.example.com/images/climate-summit.jpg",
        "alt": "Climate Summit Image",
        "width": 1200,
        "height": 800
      },
      "audio_file": null
    },
    {
      "id": 3,
      "title": "Space Exploration Mission Discovers New Planet",
      "content": "<p>NASA's latest space exploration mission has discovered a potentially habitable planet in a nearby star system. The planet, designated Kepler-442b, shows promising signs of having liquid water and a stable atmosphere.</p><p>This discovery opens up new possibilities for future space exploration and the search for extraterrestrial life.</p>",
      "author": {
        "id": 103,
        "name": "Dr. Elena Rodriguez",
        "email": "elena.rodriguez@example.com"
      },
      "created_at": "2024-01-13T16:45:00+00:00",
      "updated_at": "2024-01-13T18:20:00+00:00",
      "category": {
        "id": 3,
        "name": "Science",
        "slug": "science"
      },
      "tags": [
        {
          "id": 7,
          "name": "Space Exploration",
          "slug": "space-exploration"
        },
        {
          "id": 8,
          "name": "Astronomy",
          "slug": "astronomy"
        },
        {
          "id": 9,
          "name": "Discovery",
          "slug": "discovery"
        }
      ],
      "featured_image": {
        "id": 203,
        "url": "https://api.example.com/images/space-discovery.jpg",
        "alt": "Space Discovery Image",
        "width": 1200,
        "height": 800
      },
      "audio_file": {
        "id": 302,
        "url": "https://api.example.com/audio/space-discovery-podcast.mp3",
        "duration": 2100,
        "size": 32000000
      }
    },
    {
      "id": 4,
      "title": "Medical Breakthrough Offers Hope for Cancer Patients",
      "content": "<p>Researchers have developed a new immunotherapy treatment that shows remarkable success in treating previously untreatable forms of cancer. The treatment uses the patient's own immune system to target cancer cells.</p><p>Clinical trials have shown a 75% success rate in patients with advanced-stage cancer, offering new hope for millions of patients worldwide.</p>",
      "author": {
        "id": 104,
        "name": "Prof. David Kim",
        "email": "david.kim@example.com"
      },
      "created_at": "2024-01-12T11:20:00+00:00",
      "updated_at": "2024-01-12T13:15:00+00:00",
      "category": {
        "id": 4,
        "name": "Health",
        "slug": "health"
      },
      "tags": [
        {
          "id": 10,
          "name": "Cancer Research",
          "slug": "cancer-research"
        },
        {
          "id": 11,
          "name": "Immunotherapy",
          "slug": "immunotherapy"
        },
        {
          "id": 12,
          "name": "Medical Breakthrough",
          "slug": "medical-breakthrough"
        }
      ],
      "featured_image": {
        "id": 204,
        "url": "https://api.example.com/images/cancer-research.jpg",
        "alt": "Cancer Research Image",
        "width": 1200,
        "height": 800
      },
      "audio_file": null
    },
    {
      "id": 5,
      "title": "Renewable Energy Reaches New Milestone",
      "content": "<p>Renewable energy sources now account for over 50% of global electricity generation for the first time in history. This milestone represents a major shift towards sustainable energy production.</p><p>Solar and wind power have led this transformation, with costs dropping dramatically over the past decade and efficiency continuing to improve.</p>",
      "author": {
        "id": 105,
        "name": "Lisa Thompson",
        "email": "lisa.thompson@example.com"
      },
      "created_at": "2024-01-11T15:10:00+00:00",
      "updated_at": "2024-01-11T17:25:00+00:00",
      "category": {
        "id": 5,
        "name": "Energy",
        "slug": "energy"
      },
      "tags": [
        {
          "id": 13,
          "name": "Renewable Energy",
          "slug": "renewable-energy"
        },
        {
          "id": 14,
          "name": "Solar Power",
          "slug": "solar-power"
        },
        {
          "id": 15,
          "name": "Wind Power",
          "slug": "wind-power"
        }
      ],
      "featured_image": {
        "id": 205,
        "url": "https://api.example.com/images/renewable-energy.jpg",
        "alt": "Renewable Energy Image",
        "width": 1200,
        "height": 800
      },
      "audio_file": {
        "id": 303,
        "url": "https://api.example.com/audio/renewable-energy-podcast.mp3",
        "duration": 1650,
        "size": 24000000
      }
    },
    {
      "id": 6,
      "title": "Cybersecurity Threats Reach All-Time High",
      "content": "<p>Cybersecurity experts report that cyber threats have reached unprecedented levels, with sophisticated attacks targeting critical infrastructure and government systems worldwide.</p><p>Organizations are being urged to implement stronger security measures and invest in advanced threat detection systems to protect against these evolving risks.</p>",
      "author": {
        "id": 106,
        "name": "Alex Martinez",
        "email": "alex.martinez@example.com"
      },
      "created_at": "2024-01-10T08:30:00+00:00",
      "updated_at": "2024-01-10T10:45:00+00:00",
      "category": {
        "id": 6,
        "name": "Security",
        "slug": "security"
      },
      "tags": [
        {
          "id": 16,
          "name": "Cybersecurity",
          "slug": "cybersecurity"
        },
        {
          "id": 17,
          "name": "Threat Detection",
          "slug": "threat-detection"
        },
        {
          "id": 18,
          "name": "Infrastructure Security",
          "slug": "infrastructure-security"
        }
      ],
      "featured_image": {
        "id": 206,
        "url": "https://api.example.com/images/cybersecurity.jpg",
        "alt": "Cybersecurity Image",
        "width": 1200,
        "height": 800
      },
      "audio_file": null
    }
  ],
  "pagination": {
    "current_page": 1,
    "total_pages": 3,
    "total_items": 18,
    "items_per_page": 6
  },
  "meta": {
    "api_version": "v2.1",
    "response_time": "0.045s",
    "timestamp": "2024-01-15T20:00:00+00:00"
  }
}
